Weighted Tidy Log Odds Ratio • tidylo
…
tidy_bigrams <- austen_books() %>%
    unnest_tokens(bigram, text, token = "ngrams", n = 2) %>%
    filter(!is.na(bigram))

bigram_counts <- tidy_bigrams %>%
    count(book, bigram, sort = TRUE)

bigram_counts
#> # A tibble: 300,903 × 3
#>    book                bigram     n
#>    <fct>               <chr>  <int>
#>  1 Mansfield Park      of the   712
#>  2 Mansfield Park      to be    612
#>  3 Emma                to be    586
#>  4 Mansfield Park      in the   533
#>  5 Emma                of the   529
#>  6 Pride & Prejudice   of the   439
#>  7 Emma                it was   430
#>  8 Pride & Prejudice   to be    422
#>  9 Sense & Sensibility to be    418
#> 10 Emma                in the   416
#> # … with 300,893 more rows

Now let’s use the bind_log_odds() function from the tidylo package to find the weighted log odds for each bigram. The weighted log odds computed by this function are also z-scores for the log odds; this quantity is useful for comparing frequencies across categories or sets but its relationship to an odds ratio is not straightforward after the weighting.

What are the bigrams with the highest weighted log odds for these books?

library(tidylo)

bigram_log_odds <- bigram_counts %>%
    bind_log_odds(book, bigram, n) 

bigram_log_odds %>%
    arrange(-log_odds_weighted)
#> # A tibble: 300,903 × 4
#>    book                bigram                n log_odds_weighted
#>    <fct>               <chr>             <int>             <dbl>
#>  1 Mansfield Park      sir thomas          266              27.2
#>  2 Pride & Prejudice   mr darcy            230              27.0
#>  3 Emma                mr knightley        239              25.9
#>  4 Sense & Sensibility mrs jennings        185              24.3
#>  5 Emma                mrs weston          208              24.2
#>  6 Mansfield Park      miss crawford       196              23.4
#>  7 Persuasion          captain wentworth   143              23.0
#>  8 Persuasion          mr elliot           133              22.2
#>  9 Emma                mr elton            174              22.1
#> 10 Mansfield Park      mrs norris          148              20.3
#> # … with 300,893 more rows
…
