…
```r
library(dplyr)
library(janeaustenr)
library(tidytext)

tidy_bigrams <- austen_books() %>%
     unnest_tokens(bigram, text, token="ngrams", n = 2)

bigram_counts <- tidy_bigrams %>%
     count(book, bigram, sort = TRUE)

bigram_counts
#> # A tibble: 328,495 x 3
#>    book                bigram     n
#>    <fct>               <chr>  <int>
#>  1 Mansfield Park      of the   748
#>  2 Mansfield Park      to be    643
#>  3 Emma                to be    607
#>  4 Mansfield Park      in the   578
#>  5 Emma                of the   566
#>  6 Pride & Prejudice   of the   464
#>  7 Emma                it was   448
#>  8 Emma                in the   446
#>  9 Pride & Prejudice   to be    443
#> 10 Sense & Sensibility to be    436
#> # … with 328,485 more rows
```

Now let's use the `bind_log_odds()` function from the tidylo package to find the weighted log odds for each bigram. What are the highest log odds bigrams for these books?


```r
library(tidylo)

bigram_log_odds <- bigram_counts %>%
  bind_log_odds(bigram, book, n) 

bigram_log_odds %>%
  arrange(-log_odds)
#> # A tibble: 328,495 x 4
#>    book                bigram                n log_odds
#>    <fct>               <chr>             <int>    <dbl>
#>  1 Mansfield Park      sir thomas          287     14.8
#>  2 Pride & Prejudice   mr darcy            243     14.5
#>  3 Emma                mr knightley        269     14.3
#>  4 Sense & Sensibility mrs jennings        199     13.2
#>  5 Emma                mrs weston          229     13.2
#>  6 Persuasion          captain wentworth   170     13.0
#>  7 Mansfield Park      miss crawford       215     12.8
#>  8 Persuasion          mr elliot           147     12.1
#>  9 Emma                mr elton            190     12.0
#> 10 Mansfield Park      mr crawford         162     11.1
#> # … with 328,485 more rows
```
…
