Tidy Log Odds • tidylo
…
library(dplyr)
library(janeaustenr)
library(tidytext)
library(stringr)

tidy_bigrams <- austen_books() %>%
  unnest_tokens(bigram, text, token="ngrams", n = 2, to_lower = FALSE) %>%
  filter(!str_detect(bigram, "[A-Z]"))

bigram_counts <- tidy_bigrams %>%
  count(book, bigram, sort = TRUE)

bigram_counts
#> # A tibble: 274,583 x 3
#>    book                bigram     n
#>    <fct>               <chr>  <int>
#>  1 Mansfield Park      of the   744
#>  2 Mansfield Park      to be    613
#>  3 Emma                to be    595
#>  4 Mansfield Park      in the   564
#>  5 Emma                of the   557
#>  6 Pride & Prejudice   of the   462
#>  7 Pride & Prejudice   to be    437
#>  8 Emma                in the   434
#>  9 Sense & Sensibility of the   430
#> 10 Sense & Sensibility to be    428
#> # … with 274,573 more rows

Notice that we haven’t removed stop words, or filtered out rarely used words. We have done very little pre-processing of this text data.

Now let’s use the bind_log_odds() function from the tidylo package to find the weighted log odds for each bigram. The weighted log odds computed by this function are also z-scores for the log odds; this quantity is useful for comparing frequencies across categories or sets but its relationship to an odds ratio is not straightforward after the weighting.

What are the bigrams with the highest weighted log odds for these books?

library(tidylo)

bigram_log_odds <- bigram_counts %>%
  bind_log_odds(book, bigram, n) 

bigram_log_odds %>%
  arrange(-log_odds_weighted)
#> # A tibble: 274,583 x 4
#>    book                bigram            n log_odds_weighted
#>    <fct>               <chr>         <int>             <dbl>
#>  1 Emma                any thing       164             13.9 
#>  2 Northanger Abbey    the pump         24              9.51
#>  3 Sense & Sensibility any thing        61              9.42
#>  4 Northanger Abbey    pump room        23              9.31
#>  5 Northanger Abbey    the abbey        22              9.11
#>  6 Northanger Abbey    the general's    19              8.47
#>  7 Persuasion          any thing         7              7.78
#>  8 Emma                any body         68              7.13
#>  9 Emma                every body       73              6.93
#> 10 Sense & Sensibility the cottage      31              6.81
#> # … with 274,573 more rows
…
