Tidy Log Odds • tidylo
…
library(dplyr)
library(janeaustenr)
library(tidytext)
library(stringr)

tidy_bigrams <- austen_books() %>%
  unnest_tokens(bigram, text, token="ngrams", n = 2, to_lower = FALSE) %>%
  filter(!str_detect(bigram, "[A-Z]"))

bigram_counts <- tidy_bigrams %>%
  count(book, bigram, sort = TRUE)

bigram_counts
#> # A tibble: 256,348 × 3
#>    book                bigram     n
#>    <fct>               <chr>  <int>
#>  1 Mansfield Park      of the   708
#>  2 Mansfield Park      to be    582
#>  3 Emma                to be    574
#>  4 Emma                of the   524
#>  5 Mansfield Park      in the   520
#>  6 Pride & Prejudice   of the   437
#>  7 Pride & Prejudice   to be    416
#>  8 Sense & Sensibility to be    410
#>  9 Persuasion          of the   409
#> 10 Emma                in the   405
#> # … with 256,338 more rows

Notice that we haven’t removed stop words, or filtered out rarely used words. We have done very little pre-processing of this text data.

Now let’s use the bind_log_odds() function from the tidylo package to find the weighted log odds for each bigram. The weighted log odds computed by this function are also z-scores for the log odds; this quantity is useful for comparing frequencies across categories or sets but its relationship to an odds ratio is not straightforward after the weighting.

What are the bigrams with the highest weighted log odds for these books?

library(tidylo)

bigram_log_odds <- bigram_counts %>%
  bind_log_odds(book, bigram, n) 

bigram_log_odds %>%
  arrange(-log_odds_weighted)
#> # A tibble: 256,348 × 4
#>    book                bigram            n log_odds_weighted
#>    <fct>               <chr>         <int>             <dbl>
#>  1 Emma                any thing       150             13.3 
#>  2 Northanger Abbey    pump room        23              9.32
#>  3 Sense & Sensibility any thing        58              9.17
#>  4 Northanger Abbey    the pump         22              9.11
#>  5 Northanger Abbey    the abbey        20              8.69
#>  6 Northanger Abbey    the general's    15              7.53
#>  7 Persuasion          any thing         5              7.36
#>  8 Emma                any body         61              6.72
#>  9 Emma                every body       67              6.61
#> 10 Sense & Sensibility the cottage      26              6.28
#> # … with 256,338 more rows
…
